mx/com/praxis/services/impl/PersonServiceImpl.class
mx/com/praxis/dtos/PersonDto.class
mx/com/praxis/services/PersonService.class
mx/com/praxis/entities/Person.class
mx/com/praxis/daos/PersonDao.class
mx/com/praxis/dtos/StudentDto$1.class
mx/com/praxis/dtos/PersonDto$PersonDtoBuilder.class
mx/com/praxis/dtos/StudentDto$StudentDtoBuilder.class
mx/com/praxis/entities/Student.class
mx/com/praxis/services/impl/StudentServiceImpl.class
mx/com/praxis/controllers/StudentController.class
mx/com/praxis/daos/StudentDao.class
mx/com/praxis/controllers/PersonController.class
mx/com/praxis/daos/GenericDao.class
mx/com/praxis/daos/impl/StudentDaoImpl.class
mx/com/praxis/utils/Constants.class
mx/com/praxis/dtos/PersonDto$1.class
mx/com/praxis/dtos/StudentDto.class
mx/com/praxis/services/StudentService.class
mx/com/praxis/daos/impl/PersonDaoImpl.class
